{"filesize": "", "keyword": "", "list": [{"ID": "8dc035194e1447efbac8cf27d89a0d42", "EPS_NAME": "苏州市金茂日用化学品有限公司", "PRODUCT_SN": "苏妆20160122", "CITY_CODE": "84", "XK_COMPLETE_DATE": {"date": 29, "day": 4, "hours": 0, "minutes": 0, "month": 6, "nanos": 0, "seconds": 0, "time": 1627488000000, "timezoneOffset": -480, "year": 121}, "XK_DATE": "2021-11-14", "QF_MANAGER_NAME": "江苏省药品监督管理局", "BUSINESS_LICENSE_NUMBER": "91320583726679358F", "XC_DATE": "2021-07-29", "NUM_": 1}, {"ID": "95875a513d664f2fb16cad284c7b4d05", "EPS_NAME": "苏州科毅生物技术有限公司", "PRODUCT_SN": "苏妆20160097", "CITY_CODE": "84", "XK_COMPLETE_DATE": {"date": 29, "day": 4, "hours": 0, "minutes": 0, "month": 6, "nanos": 0, "seconds": 0, "time": 1627488000000, "timezoneOffset": -480, "year": 121}, "XK_DATE": "2021-10-14", "QF_MANAGER_NAME": "江苏省药品监督管理局", "BUSINESS_LICENSE_NUMBER": "91320594694535711J", "XC_DATE": "2021-07-29", "NUM_": 2}, {"ID": "13ce63ef75c944bcac2a5e5706c209cd", "EPS_NAME": "昆山聚宝化妆礼品有限公司", "PRODUCT_SN": "苏妆20160064", "CITY_CODE": "84", "XK_COMPLETE_DATE": {"date": 29, "day": 4, "hours": 0, "minutes": 0, "month": 6, "nanos": 0, "seconds": 0, "time": 1627488000000, "timezoneOffset": -480, "year": 121}, "XK_DATE": "2026-07-04", "QF_MANAGER_NAME": "江苏省药品监督管理局", "BUSINESS_LICENSE_NUMBER": "9132058375967254X1", "XC_DATE": "2021-07-29", "NUM_": 3}, {"ID": "5438cf19e07249b8b6d166a4df9d3377", "EPS_NAME": "海南兴科热带作物工程技术有限公司", "PRODUCT_SN": "琼妆20160014", "CITY_CODE": "385", "XK_COMPLETE_DATE": {"date": 29, "day": 4, "hours": 0, "minutes": 0, "month": 6, "nanos": 0, "seconds": 0, "time": 1627488000000, "timezoneOffset": -480, "year": 121}, "XK_DATE": "2021-12-27", "QF_MANAGER_NAME": "海南省药品监督管理局", "BUSINESS_LICENSE_NUMBER": "914690065839400365", "XC_DATE": "2021-07-29", "NUM_": 4}, {"ID": "4c857dbbcf6342f595bdbc51a1b9e155", "EPS_NAME": "天津宝洁工业有限公司", "PRODUCT_SN": "津妆20160006", "CITY_CODE": "412", "XK_COMPLETE_DATE": {"date": 29, "day": 4, "hours": 0, "minutes": 0, "month": 6, "nanos": 0, "seconds": 0, "time": 1627488000000, "timezoneOffset": -480, "year": 121}, "XK_DATE": "2026-07-28", "QF_MANAGER_NAME": "天津市药品监督管理局", "BUSINESS_LICENSE_NUMBER": "91120111600892567T", "XC_DATE": "2021-07-29", "NUM_": 5}, {"ID": "103caf86662d441d810dacc7dbb109a8", "EPS_NAME": "成都伊曼生物美容保健品有限公司", "PRODUCT_SN": "川妆20160026", "CITY_CODE": "165", "XK_COMPLETE_DATE": {"date": 29, "day": 4, "hours": 0, "minutes": 0, "month": 6, "nanos": 0, "seconds": 0, "time": 1627488000000, "timezoneOffset": -480, "year": 121}, "XK_DATE": "2021-12-05", "QF_MANAGER_NAME": "四川省药品监督管理局", "BUSINESS_LICENSE_NUMBER": "91510122737710015M", "XC_DATE": "2021-07-29", "NUM_": 6}, {"ID": "00a7123473264bd5a41eb554720e1c37", "EPS_NAME": "东莞市立特克生技化妆品有限公司", "PRODUCT_SN": "粤妆20210200", "CITY_CODE": null, "XK_COMPLETE_DATE": {"date": 28, "day": 3, "hours": 0, "minutes": 0, "month": 6, "nanos": 0, "seconds": 0, "time": 1627401600000, "timezoneOffset": -480, "year": 121}, "XK_DATE": "2026-07-27", "QF_MANAGER_NAME": "广东省药品监督管理局", "BUSINESS_LICENSE_NUMBER": "91441900062122644M", "XC_DATE": "2021-07-28", "NUM_": 7}, {"ID": "e9f599ecb24b484e8146407e0667b8a6", "EPS_NAME": "汕头市澄海区意妮日用品有限公司", "PRODUCT_SN": "粤妆20190099", "CITY_CODE": null, "XK_COMPLETE_DATE": {"date": 28, "day": 3, "hours": 0, "minutes": 0, "month": 6, "nanos": 0, "seconds": 0, "time": 1627401600000, "timezoneOffset": -480, "year": 121}, "XK_DATE": "2024-05-16", "QF_MANAGER_NAME": "广东省药品监督管理局", "BUSINESS_LICENSE_NUMBER": "91440515MA4UQA7PXD", "XC_DATE": "2021-07-28", "NUM_": 8}, {"ID": "59864d0dca934c9ba487320e3fd75a79", "EPS_NAME": "广州铭德生物科技有限公司", "PRODUCT_SN": "粤妆20190004", "CITY_CODE": null, "XK_COMPLETE_DATE": {"date": 28, "day": 3, "hours": 0, "minutes": 0, "month": 6, "nanos": 0, "seconds": 0, "time": 1627401600000, "timezoneOffset": -480, "year": 121}, "XK_DATE": "2024-01-06", "QF_MANAGER_NAME": "广东省药品监督管理局", "BUSINESS_LICENSE_NUMBER": "91440101MA59NG409C", "XC_DATE": "2021-07-28", "NUM_": 9}, {"ID": "d8c5e5154abb47c0a0ca88beac4853f5", "EPS_NAME": "姆米又国际控股集团化妆品有限公司", "PRODUCT_SN": "粤妆20180091", "CITY_CODE": null, "XK_COMPLETE_DATE": {"date": 28, "day": 3, "hours": 0, "minutes": 0, "month": 6, "nanos": 0, "seconds": 0, "time": 1627401600000, "timezoneOffset": -480, "year": 121}, "XK_DATE": "2023-03-19", "QF_MANAGER_NAME": "广东省药品监督管理局", "BUSINESS_LICENSE_NUMBER": "91440101MA59MYAB0B", "XC_DATE": "2021-07-28", "NUM_": 10}, {"ID": "c6c6b19ad22e4c9e9b4fb98ce145f746", "EPS_NAME": "广州熙望生物科技有限公司", "PRODUCT_SN": "粤妆20180012", "CITY_CODE": null, "XK_COMPLETE_DATE": {"date": 28, "day": 3, "hours": 0, "minutes": 0, "month": 6, "nanos": 0, "seconds": 0, "time": 1627401600000, "timezoneOffset": -480, "year": 121}, "XK_DATE": "2023-01-03", "QF_MANAGER_NAME": "广东省药品监督管理局", "BUSINESS_LICENSE_NUMBER": "91440101MA59QKJ36T", "XC_DATE": "2021-07-28", "NUM_": 11}, {"ID": "a03d2441d2ef46eebb7ecacb5445dffc", "EPS_NAME": "广州市玖香亿化妆品有限公司", "PRODUCT_SN": "粤妆20170525", "CITY_CODE": null, "XK_COMPLETE_DATE": {"date": 28, "day": 3, "hours": 0, "minutes": 0, "month": 6, "nanos": 0, "seconds": 0, "time": 1627401600000, "timezoneOffset": -480, "year": 121}, "XK_DATE": "2022-09-21", "QF_MANAGER_NAME": "广东省药品监督管理局", "BUSINESS_LICENSE_NUMBER": "91440111054519852K", "XC_DATE": "2021-07-28", "NUM_": 12}, {"ID": "55f95f1750c0432eb53d1628867068c5", "EPS_NAME": "广州黄万应堂健康产业有限公司", "PRODUCT_SN": "粤妆20170341", "CITY_CODE": null, "XK_COMPLETE_DATE": {"date": 28, "day": 3, "hours": 0, "minutes": 0, "month": 6, "nanos": 0, "seconds": 0, "time": 1627401600000, "timezoneOffset": -480, "year": 121}, "XK_DATE": "2022-03-23", "QF_MANAGER_NAME": "广东省药品监督管理局", "BUSINESS_LICENSE_NUMBER": "91440111304646863K", "XC_DATE": "2021-07-28", "NUM_": 13}, {"ID": "84047a300d9b46419cf4b32c3b5bd6a4", "EPS_NAME": "广州市浩鑫精细化工有限公司", "PRODUCT_SN": "粤妆20170181", "CITY_CODE": null, "XK_COMPLETE_DATE": {"date": 28, "day": 3, "hours": 0, "minutes": 0, "month": 6, "nanos": 0, "seconds": 0, "time": 1627401600000, "timezoneOffset": -480, "year": 121}, "XK_DATE": "2026-07-27", "QF_MANAGER_NAME": "广东省药品监督管理局", "BUSINESS_LICENSE_NUMBER": "91440111749937225F", "XC_DATE": "2021-07-28", "NUM_": 14}, {"ID": "0bf0d5a733b24f71b3c55ce1b55b4afb", "EPS_NAME": "广州益颜生物科技有限公司", "PRODUCT_SN": "粤妆20161710", "CITY_CODE": null, "XK_COMPLETE_DATE": {"date": 28, "day": 3, "hours": 0, "minutes": 0, "month": 6, "nanos": 0, "seconds": 0, "time": 1627401600000, "timezoneOffset": -480, "year": 121}, "XK_DATE": "2025-12-28", "QF_MANAGER_NAME": "广东省药品监督管理局", "BUSINESS_LICENSE_NUMBER": "91440101MA59EP9N4L", "XC_DATE": "2021-07-28", "NUM_": 15}], "orderBy": "createDate", "orderType": "desc", "pageCount": 380, "pageNumber": 1, "pageSize": 15, "property": "", "totalCount": 5686}